\relax 
\providecommand\hyper@newdestlabel[2]{}
\catcode `"\active 
\providecommand\HyperFirstAtBeginDocument{\AtBeginDocument}
\HyperFirstAtBeginDocument{\ifx\hyper@anchor\@undefined
\global\let\oldcontentsline\contentsline
\gdef\contentsline#1#2#3#4{\oldcontentsline{#1}{#2}{#3}}
\global\let\oldnewlabel\newlabel
\gdef\newlabel#1#2{\newlabelxx{#1}#2}
\gdef\newlabelxx#1#2#3#4#5#6{\oldnewlabel{#1}{{#2}{#3}}}
\AtEndDocument{\ifx\hyper@anchor\@undefined
\let\contentsline\oldcontentsline
\let\newlabel\oldnewlabel
\fi}
\fi}
\global\let\hyper@last\relax 
\gdef\HyperFirstAtBeginDocument#1{#1}
\providecommand\HyField@AuxAddToFields[1]{}
\providecommand\HyField@AuxAddToCoFields[2]{}
\babel@aux{russian}{}
\@writefile{toc}{\contentsline {section}{\numberline {1}\IeC {\CYRO }\IeC {\cyrs }\IeC {\cyro }\IeC {\cyrb }\IeC {\cyre }\IeC {\cyrn }\IeC {\cyrn }\IeC {\cyro }\IeC {\cyrs }\IeC {\cyrt }\IeC {\cyri } \IeC {\cyrt }\IeC {\cyre }\IeC {\cyrh }\IeC {\cyrn }\IeC {\cyro }\IeC {\cyrl }\IeC {\cyro }\IeC {\cyrg }\IeC {\cyri }\IeC {\cyri }}{2}{section.1}}
\@writefile{toc}{\contentsline {section}{\numberline {2}\IeC {\CYRM }\IeC {\cyro }\IeC {\cyrd }\IeC {\cyru }\IeC {\cyrl }\IeC {\cyrya }\IeC {\cyrc }\IeC {\cyri }\IeC {\cyrya }}{4}{section.2}}
\bibcite{}{1}
\bibcite{}{2}
\@writefile{lof}{\contentsline {figure}{\numberline {1}{\ignorespaces OFDMA - \IeC {\cyrm }\IeC {\cyro }\IeC {\cyrd }\IeC {\cyru }\IeC {\cyrl }\IeC {\cyrya }\IeC {\cyrt }\IeC {\cyro }\IeC {\cyrr }}}{5}{figure.1}}
\newlabel{ris:image}{{1}{5}{OFDMA - модулятор}{figure.1}{}}
