190215 12:46:04 [Note] Plugin 'FEDERATED' is disabled.
190215 12:46:04 InnoDB: The InnoDB memory heap is disabled
190215 12:46:04 InnoDB: Mutexes and rw_locks use Windows interlocked functions
190215 12:46:04 InnoDB: Compressed tables use zlib 1.2.3
190215 12:46:04 InnoDB: Initializing buffer pool, size = 128.0M
190215 12:46:04 InnoDB: Completed initialization of buffer pool
InnoDB: The first specified data file .\ibdata1 did not exist:
InnoDB: a new database to be created!
190215 12:46:04  InnoDB: Setting file .\ibdata1 size to 10 MB
InnoDB: Database physically writes the file full: wait...
190215 12:46:04  InnoDB: Log file .\ib_logfile0 did not exist: new to be created
InnoDB: Setting log file .\ib_logfile0 size to 5 MB
InnoDB: Database physically writes the file full: wait...
190215 12:46:04  InnoDB: Log file .\ib_logfile1 did not exist: new to be created
InnoDB: Setting log file .\ib_logfile1 size to 5 MB
InnoDB: Database physically writes the file full: wait...
InnoDB: Doublewrite buffer not found: creating new
InnoDB: Doublewrite buffer created
InnoDB: 127 rollback segment(s) active.
InnoDB: Creating foreign key constraint system tables
InnoDB: Foreign key constraint system tables created
190215 12:46:04  InnoDB: Waiting for the background threads to start
190215 12:46:05 InnoDB: 1.1.8 started; log sequence number 0
190215 12:46:05 [Note] Server hostname (bind-address): '127.0.0.1'; port: 3306
190215 12:46:05 [Note]   - '127.0.0.1' resolves to '127.0.0.1';
190215 12:46:05 [Note] Server socket created on IP: '127.0.0.1'.
190215 12:55:20 [Note] Plugin 'FEDERATED' is disabled.
190215 12:55:20 InnoDB: The InnoDB memory heap is disabled
190215 12:55:20 InnoDB: Mutexes and rw_locks use Windows interlocked functions
190215 12:55:20 InnoDB: Compressed tables use zlib 1.2.3
190215 12:55:20 InnoDB: Initializing buffer pool, size = 128.0M
190215 12:55:20 InnoDB: Completed initialization of buffer pool
190215 12:55:20 InnoDB: highest supported file format is Barracuda.
InnoDB: The log sequence number in ibdata files does not match
InnoDB: the log sequence number in the ib_logfiles!
190215 12:55:20  InnoDB: Database was not shut down normally!
InnoDB: Starting crash recovery.
InnoDB: Reading tablespace information from the .ibd files...
InnoDB: Restoring possible half-written data pages from the doublewrite
InnoDB: buffer...
190215 12:55:20  InnoDB: Waiting for the background threads to start
190215 12:55:21 InnoDB: 1.1.8 started; log sequence number 1595675
190215 12:55:21 [Note] Server hostname (bind-address): '127.0.0.1'; port: 3306
190215 12:55:21 [Note]   - '127.0.0.1' resolves to '127.0.0.1';
190215 12:55:21 [Note] Server socket created on IP: '127.0.0.1'.
190215 12:57:16 [Note] Plugin 'FEDERATED' is disabled.
190215 12:57:16 InnoDB: The InnoDB memory heap is disabled
190215 12:57:16 InnoDB: Mutexes and rw_locks use Windows interlocked functions
190215 12:57:16 InnoDB: Compressed tables use zlib 1.2.3
190215 12:57:16 InnoDB: Initializing buffer pool, size = 128.0M
190215 12:57:16 InnoDB: Completed initialization of buffer pool
190215 12:57:16 InnoDB: highest supported file format is Barracuda.
InnoDB: The log sequence number in ibdata files does not match
InnoDB: the log sequence number in the ib_logfiles!
190215 12:57:16  InnoDB: Database was not shut down normally!
InnoDB: Starting crash recovery.
InnoDB: Reading tablespace information from the .ibd files...
InnoDB: Restoring possible half-written data pages from the doublewrite
InnoDB: buffer...
190215 12:57:16  InnoDB: Waiting for the background threads to start
190215 12:57:17 InnoDB: 1.1.8 started; log sequence number 1595675
190215 12:57:17 [Note] Server hostname (bind-address): '127.0.0.1'; port: 3306
190215 12:57:17 [Note]   - '127.0.0.1' resolves to '127.0.0.1';
190215 12:57:17 [Note] Server socket created on IP: '127.0.0.1'.
190215 12:57:58 [Note] Plugin 'FEDERATED' is disabled.
190215 12:57:58 InnoDB: The InnoDB memory heap is disabled
190215 12:57:58 InnoDB: Mutexes and rw_locks use Windows interlocked functions
190215 12:57:58 InnoDB: Compressed tables use zlib 1.2.3
190215 12:57:58 InnoDB: Initializing buffer pool, size = 128.0M
190215 12:57:58 InnoDB: Completed initialization of buffer pool
190215 12:57:58 InnoDB: highest supported file format is Barracuda.
InnoDB: The log sequence number in ibdata files does not match
InnoDB: the log sequence number in the ib_logfiles!
190215 12:57:58  InnoDB: Database was not shut down normally!
InnoDB: Starting crash recovery.
InnoDB: Reading tablespace information from the .ibd files...
InnoDB: Restoring possible half-written data pages from the doublewrite
InnoDB: buffer...
190215 12:57:58  InnoDB: Waiting for the background threads to start
190215 12:57:59 InnoDB: 1.1.8 started; log sequence number 1595675
190215 12:57:59 [Note] Server hostname (bind-address): '127.0.0.1'; port: 3306
190215 12:57:59 [Note]   - '127.0.0.1' resolves to '127.0.0.1';
190215 12:57:59 [Note] Server socket created on IP: '127.0.0.1'.
190216 18:57:02 [Note] Plugin 'FEDERATED' is disabled.
190216 18:57:02 InnoDB: The InnoDB memory heap is disabled
190216 18:57:02 InnoDB: Mutexes and rw_locks use Windows interlocked functions
190216 18:57:02 InnoDB: Compressed tables use zlib 1.2.3
190216 18:57:02 InnoDB: Initializing buffer pool, size = 128.0M
190216 18:57:02 InnoDB: Completed initialization of buffer pool
190216 18:57:02 InnoDB: highest supported file format is Barracuda.
InnoDB: The log sequence number in ibdata files does not match
InnoDB: the log sequence number in the ib_logfiles!
190216 18:57:02  InnoDB: Database was not shut down normally!
InnoDB: Starting crash recovery.
InnoDB: Reading tablespace information from the .ibd files...
InnoDB: Restoring possible half-written data pages from the doublewrite
InnoDB: buffer...
190216 18:57:02  InnoDB: Waiting for the background threads to start
190216 18:57:03 InnoDB: 1.1.8 started; log sequence number 1595675
190216 18:57:03 [Note] Server hostname (bind-address): '127.0.0.1'; port: 3306
190216 18:57:03 [Note]   - '127.0.0.1' resolves to '127.0.0.1';
190216 18:57:03 [Note] Server socket created on IP: '127.0.0.1'.
190219  7:10:56 [Note] Plugin 'FEDERATED' is disabled.
190219  7:10:56 InnoDB: The InnoDB memory heap is disabled
190219  7:10:56 InnoDB: Mutexes and rw_locks use Windows interlocked functions
190219  7:10:56 InnoDB: Compressed tables use zlib 1.2.3
190219  7:10:56 InnoDB: Initializing buffer pool, size = 128.0M
190219  7:10:56 InnoDB: Completed initialization of buffer pool
190219  7:10:56 InnoDB: highest supported file format is Barracuda.
InnoDB: The log sequence number in ibdata files does not match
InnoDB: the log sequence number in the ib_logfiles!
190219  7:10:56  InnoDB: Database was not shut down normally!
InnoDB: Starting crash recovery.
InnoDB: Reading tablespace information from the .ibd files...
InnoDB: Restoring possible half-written data pages from the doublewrite
InnoDB: buffer...
190219  7:10:57  InnoDB: Waiting for the background threads to start
190219  7:10:58 InnoDB: 1.1.8 started; log sequence number 1595675
190219  7:10:58 [Note] Server hostname (bind-address): '127.0.0.1'; port: 3306
190219  7:10:58 [Note]   - '127.0.0.1' resolves to '127.0.0.1';
190219  7:10:58 [Note] Server socket created on IP: '127.0.0.1'.
190219  7:12:39 [Note] Plugin 'FEDERATED' is disabled.
190219  7:12:39 InnoDB: The InnoDB memory heap is disabled
190219  7:12:39 InnoDB: Mutexes and rw_locks use Windows interlocked functions
190219  7:12:39 InnoDB: Compressed tables use zlib 1.2.3
190219  7:12:39 InnoDB: Initializing buffer pool, size = 128.0M
190219  7:12:39 InnoDB: Completed initialization of buffer pool
190219  7:12:39 InnoDB: highest supported file format is Barracuda.
InnoDB: The log sequence number in ibdata files does not match
InnoDB: the log sequence number in the ib_logfiles!
190219  7:12:39  InnoDB: Database was not shut down normally!
InnoDB: Starting crash recovery.
InnoDB: Reading tablespace information from the .ibd files...
InnoDB: Restoring possible half-written data pages from the doublewrite
InnoDB: buffer...
190219  7:12:39  InnoDB: Waiting for the background threads to start
190219  7:12:40 InnoDB: 1.1.8 started; log sequence number 1595675
190219  7:12:40 [Note] Server hostname (bind-address): '127.0.0.1'; port: 3306
190219  7:12:40 [Note]   - '127.0.0.1' resolves to '127.0.0.1';
190219  7:12:40 [Note] Server socket created on IP: '127.0.0.1'.
190220 18:08:21 [Note] Plugin 'FEDERATED' is disabled.
190220 18:08:21 InnoDB: The InnoDB memory heap is disabled
190220 18:08:21 InnoDB: Mutexes and rw_locks use Windows interlocked functions
190220 18:08:21 InnoDB: Compressed tables use zlib 1.2.3
190220 18:08:21 InnoDB: Initializing buffer pool, size = 128.0M
190220 18:08:21 InnoDB: Completed initialization of buffer pool
190220 18:08:21 InnoDB: highest supported file format is Barracuda.
InnoDB: The log sequence number in ibdata files does not match
InnoDB: the log sequence number in the ib_logfiles!
190220 18:08:21  InnoDB: Database was not shut down normally!
InnoDB: Starting crash recovery.
InnoDB: Reading tablespace information from the .ibd files...
InnoDB: Restoring possible half-written data pages from the doublewrite
InnoDB: buffer...
190220 18:08:21  InnoDB: Waiting for the background threads to start
190220 18:08:22 InnoDB: 1.1.8 started; log sequence number 1595675
190220 18:08:22 [Note] Server hostname (bind-address): '127.0.0.1'; port: 3306
190220 18:08:22 [Note]   - '127.0.0.1' resolves to '127.0.0.1';
190220 18:08:22 [Note] Server socket created on IP: '127.0.0.1'.
190222 11:27:14 [Note] Plugin 'FEDERATED' is disabled.
190222 11:27:14 InnoDB: The InnoDB memory heap is disabled
190222 11:27:14 InnoDB: Mutexes and rw_locks use Windows interlocked functions
190222 11:27:14 InnoDB: Compressed tables use zlib 1.2.3
190222 11:27:14 InnoDB: Initializing buffer pool, size = 128.0M
190222 11:27:14 InnoDB: Completed initialization of buffer pool
190222 11:27:14 InnoDB: highest supported file format is Barracuda.
InnoDB: The log sequence number in ibdata files does not match
InnoDB: the log sequence number in the ib_logfiles!
190222 11:27:14  InnoDB: Database was not shut down normally!
InnoDB: Starting crash recovery.
InnoDB: Reading tablespace information from the .ibd files...
InnoDB: Restoring possible half-written data pages from the doublewrite
InnoDB: buffer...
190222 11:27:15  InnoDB: Waiting for the background threads to start
190222 11:27:16 InnoDB: 1.1.8 started; log sequence number 1595675
190222 11:27:16 [Note] Server hostname (bind-address): '127.0.0.1'; port: 3306
190222 11:27:16 [Note]   - '127.0.0.1' resolves to '127.0.0.1';
190222 11:27:16 [Note] Server socket created on IP: '127.0.0.1'.
190222 11:34:07 [Note] Plugin 'FEDERATED' is disabled.
190222 11:34:07 InnoDB: The InnoDB memory heap is disabled
190222 11:34:07 InnoDB: Mutexes and rw_locks use Windows interlocked functions
190222 11:34:07 InnoDB: Compressed tables use zlib 1.2.3
190222 11:34:07 InnoDB: Initializing buffer pool, size = 128.0M
190222 11:34:07 InnoDB: Completed initialization of buffer pool
190222 11:34:07 InnoDB: highest supported file format is Barracuda.
InnoDB: The log sequence number in ibdata files does not match
InnoDB: the log sequence number in the ib_logfiles!
190222 11:34:07  InnoDB: Database was not shut down normally!
InnoDB: Starting crash recovery.
InnoDB: Reading tablespace information from the .ibd files...
InnoDB: Restoring possible half-written data pages from the doublewrite
InnoDB: buffer...
190222 11:34:07  InnoDB: Waiting for the background threads to start
190222 11:34:08 InnoDB: 1.1.8 started; log sequence number 1595675
190222 11:34:08 [Note] Server hostname (bind-address): '127.0.0.1'; port: 3306
190222 11:34:08 [Note]   - '127.0.0.1' resolves to '127.0.0.1';
190222 11:34:08 [Note] Server socket created on IP: '127.0.0.1'.
190222 11:35:38 [Note] Plugin 'FEDERATED' is disabled.
190222 11:35:38 InnoDB: The InnoDB memory heap is disabled
190222 11:35:38 InnoDB: Mutexes and rw_locks use Windows interlocked functions
190222 11:35:38 InnoDB: Compressed tables use zlib 1.2.3
190222 11:35:38 InnoDB: Initializing buffer pool, size = 128.0M
190222 11:35:38 InnoDB: Completed initialization of buffer pool
190222 11:35:38 InnoDB: highest supported file format is Barracuda.
InnoDB: The log sequence number in ibdata files does not match
InnoDB: the log sequence number in the ib_logfiles!
190222 11:35:38  InnoDB: Database was not shut down normally!
InnoDB: Starting crash recovery.
InnoDB: Reading tablespace information from the .ibd files...
InnoDB: Restoring possible half-written data pages from the doublewrite
InnoDB: buffer...
190222 11:35:38  InnoDB: Waiting for the background threads to start
190222 11:35:39 InnoDB: 1.1.8 started; log sequence number 1595675
190222 11:35:39 [Note] Server hostname (bind-address): '127.0.0.1'; port: 3306
190222 11:35:39 [Note]   - '127.0.0.1' resolves to '127.0.0.1';
190222 11:35:39 [Note] Server socket created on IP: '127.0.0.1'.
190225  9:59:06 [Note] Plugin 'FEDERATED' is disabled.
190225  9:59:06 InnoDB: The InnoDB memory heap is disabled
190225  9:59:06 InnoDB: Mutexes and rw_locks use Windows interlocked functions
190225  9:59:06 InnoDB: Compressed tables use zlib 1.2.3
190225  9:59:06 InnoDB: Initializing buffer pool, size = 128.0M
190225  9:59:06 InnoDB: Completed initialization of buffer pool
190225  9:59:06 InnoDB: highest supported file format is Barracuda.
InnoDB: The log sequence number in ibdata files does not match
InnoDB: the log sequence number in the ib_logfiles!
190225  9:59:06  InnoDB: Database was not shut down normally!
InnoDB: Starting crash recovery.
InnoDB: Reading tablespace information from the .ibd files...
InnoDB: Restoring possible half-written data pages from the doublewrite
InnoDB: buffer...
190225  9:59:06  InnoDB: Waiting for the background threads to start
190225  9:59:07 InnoDB: 1.1.8 started; log sequence number 1595675
190225  9:59:07 [Note] Server hostname (bind-address): '127.0.0.1'; port: 3306
190225  9:59:07 [Note]   - '127.0.0.1' resolves to '127.0.0.1';
190225  9:59:07 [Note] Server socket created on IP: '127.0.0.1'.
190225  9:59:44 [Note] Plugin 'FEDERATED' is disabled.
190225  9:59:44 InnoDB: The InnoDB memory heap is disabled
190225  9:59:44 InnoDB: Mutexes and rw_locks use Windows interlocked functions
190225  9:59:44 InnoDB: Compressed tables use zlib 1.2.3
190225  9:59:44 InnoDB: Initializing buffer pool, size = 128.0M
190225  9:59:44 InnoDB: Completed initialization of buffer pool
190225  9:59:44 InnoDB: highest supported file format is Barracuda.
InnoDB: The log sequence number in ibdata files does not match
InnoDB: the log sequence number in the ib_logfiles!
190225  9:59:44  InnoDB: Database was not shut down normally!
InnoDB: Starting crash recovery.
InnoDB: Reading tablespace information from the .ibd files...
InnoDB: Restoring possible half-written data pages from the doublewrite
InnoDB: buffer...
190225  9:59:44  InnoDB: Waiting for the background threads to start
190225  9:59:45 InnoDB: 1.1.8 started; log sequence number 1595675
190225  9:59:45 [Note] Server hostname (bind-address): '127.0.0.1'; port: 3306
190225  9:59:45 [Note]   - '127.0.0.1' resolves to '127.0.0.1';
190225  9:59:45 [Note] Server socket created on IP: '127.0.0.1'.
190225 10:44:14 [Note] Plugin 'FEDERATED' is disabled.
190225 10:44:14 InnoDB: The InnoDB memory heap is disabled
190225 10:44:14 InnoDB: Mutexes and rw_locks use Windows interlocked functions
190225 10:44:14 InnoDB: Compressed tables use zlib 1.2.3
190225 10:44:14 InnoDB: Initializing buffer pool, size = 128.0M
190225 10:44:14 InnoDB: Completed initialization of buffer pool
190225 10:44:14 InnoDB: highest supported file format is Barracuda.
InnoDB: The log sequence number in ibdata files does not match
InnoDB: the log sequence number in the ib_logfiles!
190225 10:44:14  InnoDB: Database was not shut down normally!
InnoDB: Starting crash recovery.
InnoDB: Reading tablespace information from the .ibd files...
InnoDB: Restoring possible half-written data pages from the doublewrite
InnoDB: buffer...
190225 10:44:14  InnoDB: Waiting for the background threads to start
190225 10:44:15 InnoDB: 1.1.8 started; log sequence number 1691389
190225 10:44:15 [Note] Server hostname (bind-address): '127.0.0.1'; port: 3306
190225 10:44:15 [Note]   - '127.0.0.1' resolves to '127.0.0.1';
190225 10:44:15 [Note] Server socket created on IP: '127.0.0.1'.
190225 10:44:36 [Note] Plugin 'FEDERATED' is disabled.
190225 10:44:36 InnoDB: The InnoDB memory heap is disabled
190225 10:44:36 InnoDB: Mutexes and rw_locks use Windows interlocked functions
190225 10:44:36 InnoDB: Compressed tables use zlib 1.2.3
190225 10:44:36 InnoDB: Initializing buffer pool, size = 128.0M
190225 10:44:36 InnoDB: Completed initialization of buffer pool
190225 10:44:36 InnoDB: highest supported file format is Barracuda.
InnoDB: The log sequence number in ibdata files does not match
InnoDB: the log sequence number in the ib_logfiles!
190225 10:44:36  InnoDB: Database was not shut down normally!
InnoDB: Starting crash recovery.
InnoDB: Reading tablespace information from the .ibd files...
InnoDB: Restoring possible half-written data pages from the doublewrite
InnoDB: buffer...
190225 10:44:36  InnoDB: Waiting for the background threads to start
190225 10:44:37 InnoDB: 1.1.8 started; log sequence number 1691389
190225 10:44:37 [Note] Server hostname (bind-address): '127.0.0.1'; port: 3306
190225 10:44:37 [Note]   - '127.0.0.1' resolves to '127.0.0.1';
190225 10:44:37 [Note] Server socket created on IP: '127.0.0.1'.
190225 10:57:23 [Note] Plugin 'FEDERATED' is disabled.
190225 10:57:23 InnoDB: The InnoDB memory heap is disabled
190225 10:57:23 InnoDB: Mutexes and rw_locks use Windows interlocked functions
190225 10:57:23 InnoDB: Compressed tables use zlib 1.2.3
190225 10:57:23 InnoDB: Initializing buffer pool, size = 128.0M
190225 10:57:23 InnoDB: Completed initialization of buffer pool
190225 10:57:23 InnoDB: highest supported file format is Barracuda.
InnoDB: The log sequence number in ibdata files does not match
InnoDB: the log sequence number in the ib_logfiles!
190225 10:57:23  InnoDB: Database was not shut down normally!
InnoDB: Starting crash recovery.
InnoDB: Reading tablespace information from the .ibd files...
InnoDB: Restoring possible half-written data pages from the doublewrite
InnoDB: buffer...
190225 10:57:23  InnoDB: Waiting for the background threads to start
190225 10:57:24 InnoDB: 1.1.8 started; log sequence number 1837657
190225 10:57:24 [Note] Server hostname (bind-address): '127.0.0.1'; port: 3306
190225 10:57:24 [Note]   - '127.0.0.1' resolves to '127.0.0.1';
190225 10:57:24 [Note] Server socket created on IP: '127.0.0.1'.
190225 11:25:41 [Note] Plugin 'FEDERATED' is disabled.
190225 11:25:41 InnoDB: The InnoDB memory heap is disabled
190225 11:25:41 InnoDB: Mutexes and rw_locks use Windows interlocked functions
190225 11:25:41 InnoDB: Compressed tables use zlib 1.2.3
190225 11:25:41 InnoDB: Initializing buffer pool, size = 128.0M
190225 11:25:41 InnoDB: Completed initialization of buffer pool
190225 11:25:41 InnoDB: highest supported file format is Barracuda.
InnoDB: The log sequence number in ibdata files does not match
InnoDB: the log sequence number in the ib_logfiles!
190225 11:25:41  InnoDB: Database was not shut down normally!
InnoDB: Starting crash recovery.
InnoDB: Reading tablespace information from the .ibd files...
InnoDB: Restoring possible half-written data pages from the doublewrite
InnoDB: buffer...
190225 11:25:41  InnoDB: Waiting for the background threads to start
190225 11:25:42 InnoDB: 1.1.8 started; log sequence number 1905177
190225 11:25:42 [Note] Server hostname (bind-address): '127.0.0.1'; port: 3306
190225 11:25:42 [Note]   - '127.0.0.1' resolves to '127.0.0.1';
190225 11:25:42 [Note] Server socket created on IP: '127.0.0.1'.
190225 11:26:08 [Note] Plugin 'FEDERATED' is disabled.
190225 11:26:08 InnoDB: The InnoDB memory heap is disabled
190225 11:26:08 InnoDB: Mutexes and rw_locks use Windows interlocked functions
190225 11:26:08 InnoDB: Compressed tables use zlib 1.2.3
190225 11:26:08 InnoDB: Initializing buffer pool, size = 128.0M
190225 11:26:08 InnoDB: Completed initialization of buffer pool
190225 11:26:08 InnoDB: highest supported file format is Barracuda.
InnoDB: The log sequence number in ibdata files does not match
InnoDB: the log sequence number in the ib_logfiles!
190225 11:26:08  InnoDB: Database was not shut down normally!
InnoDB: Starting crash recovery.
InnoDB: Reading tablespace information from the .ibd files...
InnoDB: Restoring possible half-written data pages from the doublewrite
InnoDB: buffer...
190225 11:26:08  InnoDB: Waiting for the background threads to start
190225 11:26:09 InnoDB: 1.1.8 started; log sequence number 1905177
190225 11:26:09 [Note] Server hostname (bind-address): '127.0.0.1'; port: 3306
190225 11:26:09 [Note]   - '127.0.0.1' resolves to '127.0.0.1';
190225 11:26:09 [Note] Server socket created on IP: '127.0.0.1'.
190225 11:29:15 [Note] Plugin 'FEDERATED' is disabled.
190225 11:29:15 InnoDB: The InnoDB memory heap is disabled
190225 11:29:15 InnoDB: Mutexes and rw_locks use Windows interlocked functions
190225 11:29:15 InnoDB: Compressed tables use zlib 1.2.3
190225 11:29:15 InnoDB: Initializing buffer pool, size = 128.0M
190225 11:29:15 InnoDB: Completed initialization of buffer pool
190225 11:29:15 InnoDB: highest supported file format is Barracuda.
InnoDB: The log sequence number in ibdata files does not match
InnoDB: the log sequence number in the ib_logfiles!
190225 11:29:15  InnoDB: Database was not shut down normally!
InnoDB: Starting crash recovery.
InnoDB: Reading tablespace information from the .ibd files...
InnoDB: Restoring possible half-written data pages from the doublewrite
InnoDB: buffer...
190225 11:29:15  InnoDB: Waiting for the background threads to start
190225 11:29:16 InnoDB: 1.1.8 started; log sequence number 1933776
190225 11:29:16 [Note] Server hostname (bind-address): '127.0.0.1'; port: 3306
190225 11:29:16 [Note]   - '127.0.0.1' resolves to '127.0.0.1';
190225 11:29:16 [Note] Server socket created on IP: '127.0.0.1'.
190309 18:19:35 [Note] Plugin 'FEDERATED' is disabled.
190309 18:19:35 InnoDB: The InnoDB memory heap is disabled
190309 18:19:35 InnoDB: Mutexes and rw_locks use Windows interlocked functions
190309 18:19:35 InnoDB: Compressed tables use zlib 1.2.3
190309 18:19:35 InnoDB: Initializing buffer pool, size = 128.0M
190309 18:19:35 InnoDB: Completed initialization of buffer pool
190309 18:19:35 InnoDB: highest supported file format is Barracuda.
InnoDB: The log sequence number in ibdata files does not match
InnoDB: the log sequence number in the ib_logfiles!
190309 18:19:35  InnoDB: Database was not shut down normally!
InnoDB: Starting crash recovery.
InnoDB: Reading tablespace information from the .ibd files...
InnoDB: Restoring possible half-written data pages from the doublewrite
InnoDB: buffer...
190309 18:19:35  InnoDB: Waiting for the background threads to start
190309 18:19:36 InnoDB: 1.1.8 started; log sequence number 1999725
190309 18:19:36 [Note] Server hostname (bind-address): '127.0.0.1'; port: 3306
190309 18:19:36 [Note]   - '127.0.0.1' resolves to '127.0.0.1';
190309 18:19:36 [Note] Server socket created on IP: '127.0.0.1'.
190309 18:25:00 [Note] Plugin 'FEDERATED' is disabled.
190309 18:25:00 InnoDB: The InnoDB memory heap is disabled
190309 18:25:00 InnoDB: Mutexes and rw_locks use Windows interlocked functions
190309 18:25:00 InnoDB: Compressed tables use zlib 1.2.3
190309 18:25:00 InnoDB: Initializing buffer pool, size = 128.0M
190309 18:25:00 InnoDB: Completed initialization of buffer pool
190309 18:25:00 InnoDB: highest supported file format is Barracuda.
InnoDB: The log sequence number in ibdata files does not match
InnoDB: the log sequence number in the ib_logfiles!
190309 18:25:00  InnoDB: Database was not shut down normally!
InnoDB: Starting crash recovery.
InnoDB: Reading tablespace information from the .ibd files...
InnoDB: Restoring possible half-written data pages from the doublewrite
InnoDB: buffer...
190309 18:25:01  InnoDB: Waiting for the background threads to start
190309 18:25:02 InnoDB: 1.1.8 started; log sequence number 1999725
190309 18:25:02 [Note] Server hostname (bind-address): '127.0.0.1'; port: 3306
190309 18:25:02 [Note]   - '127.0.0.1' resolves to '127.0.0.1';
190309 18:25:02 [Note] Server socket created on IP: '127.0.0.1'.
190309 18:25:43 [Note] Plugin 'FEDERATED' is disabled.
190309 18:25:43 InnoDB: The InnoDB memory heap is disabled
190309 18:25:43 InnoDB: Mutexes and rw_locks use Windows interlocked functions
190309 18:25:43 InnoDB: Compressed tables use zlib 1.2.3
190309 18:25:43 InnoDB: Initializing buffer pool, size = 128.0M
190309 18:25:43 InnoDB: Completed initialization of buffer pool
190309 18:25:43 InnoDB: highest supported file format is Barracuda.
InnoDB: The log sequence number in ibdata files does not match
InnoDB: the log sequence number in the ib_logfiles!
190309 18:25:43  InnoDB: Database was not shut down normally!
InnoDB: Starting crash recovery.
InnoDB: Reading tablespace information from the .ibd files...
InnoDB: Restoring possible half-written data pages from the doublewrite
InnoDB: buffer...
190309 18:25:43  InnoDB: Waiting for the background threads to start
190309 18:25:44 InnoDB: 1.1.8 started; log sequence number 1999735
190309 18:25:44 [Note] Server hostname (bind-address): '127.0.0.1'; port: 3306
190309 18:25:44 [Note]   - '127.0.0.1' resolves to '127.0.0.1';
190309 18:25:44 [Note] Server socket created on IP: '127.0.0.1'.
190313 14:43:43 [Note] Plugin 'FEDERATED' is disabled.
190313 14:43:43 InnoDB: The InnoDB memory heap is disabled
190313 14:43:43 InnoDB: Mutexes and rw_locks use Windows interlocked functions
190313 14:43:43 InnoDB: Compressed tables use zlib 1.2.3
190313 14:43:43 InnoDB: Initializing buffer pool, size = 128.0M
190313 14:43:43 InnoDB: Completed initialization of buffer pool
190313 14:43:43 InnoDB: highest supported file format is Barracuda.
InnoDB: The log sequence number in ibdata files does not match
InnoDB: the log sequence number in the ib_logfiles!
190313 14:43:43  InnoDB: Database was not shut down normally!
InnoDB: Starting crash recovery.
InnoDB: Reading tablespace information from the .ibd files...
InnoDB: Restoring possible half-written data pages from the doublewrite
InnoDB: buffer...
190313 14:43:43  InnoDB: Waiting for the background threads to start
190313 14:43:44 InnoDB: 1.1.8 started; log sequence number 1999735
190313 14:43:44 [Note] Server hostname (bind-address): '127.0.0.1'; port: 3306
190313 14:43:44 [Note]   - '127.0.0.1' resolves to '127.0.0.1';
190313 14:43:44 [Note] Server socket created on IP: '127.0.0.1'.
190314  9:45:02 [Note] Plugin 'FEDERATED' is disabled.
190314  9:45:02 InnoDB: The InnoDB memory heap is disabled
190314  9:45:02 InnoDB: Mutexes and rw_locks use Windows interlocked functions
190314  9:45:02 InnoDB: Compressed tables use zlib 1.2.3
190314  9:45:02 InnoDB: Initializing buffer pool, size = 128.0M
190314  9:45:02 InnoDB: Completed initialization of buffer pool
190314  9:45:02 InnoDB: highest supported file format is Barracuda.
InnoDB: The log sequence number in ibdata files does not match
InnoDB: the log sequence number in the ib_logfiles!
190314  9:45:02  InnoDB: Database was not shut down normally!
InnoDB: Starting crash recovery.
InnoDB: Reading tablespace information from the .ibd files...
InnoDB: Restoring possible half-written data pages from the doublewrite
InnoDB: buffer...
190314  9:45:03  InnoDB: Waiting for the background threads to start
190314  9:45:04 InnoDB: 1.1.8 started; log sequence number 1999745
190314  9:45:04 [Note] Server hostname (bind-address): '127.0.0.1'; port: 3306
190314  9:45:04 [Note]   - '127.0.0.1' resolves to '127.0.0.1';
190314  9:45:04 [Note] Server socket created on IP: '127.0.0.1'.
190314 11:50:18 [Note] Plugin 'FEDERATED' is disabled.
190314 11:50:18 InnoDB: The InnoDB memory heap is disabled
190314 11:50:18 InnoDB: Mutexes and rw_locks use Windows interlocked functions
190314 11:50:18 InnoDB: Compressed tables use zlib 1.2.3
190314 11:50:18 InnoDB: Initializing buffer pool, size = 128.0M
190314 11:50:18 InnoDB: Completed initialization of buffer pool
190314 11:50:18 InnoDB: highest supported file format is Barracuda.
InnoDB: The log sequence number in ibdata files does not match
InnoDB: the log sequence number in the ib_logfiles!
190314 11:50:18  InnoDB: Database was not shut down normally!
InnoDB: Starting crash recovery.
InnoDB: Reading tablespace information from the .ibd files...
InnoDB: Restoring possible half-written data pages from the doublewrite
InnoDB: buffer...
190314 11:50:18  InnoDB: Waiting for the background threads to start
190314 11:50:19 InnoDB: 1.1.8 started; log sequence number 2005358
190314 11:50:19 [Note] Server hostname (bind-address): '127.0.0.1'; port: 3306
190314 11:50:19 [Note]   - '127.0.0.1' resolves to '127.0.0.1';
190314 11:50:19 [Note] Server socket created on IP: '127.0.0.1'.
190314 10:06:32 [Note] Plugin 'FEDERATED' is disabled.
190314 10:06:33 InnoDB: The InnoDB memory heap is disabled
190314 10:06:33 InnoDB: Mutexes and rw_locks use Windows interlocked functions
190314 10:06:33 InnoDB: Compressed tables use zlib 1.2.3
190314 10:06:33 InnoDB: Initializing buffer pool, size = 128.0M
190314 10:06:33 InnoDB: Completed initialization of buffer pool
190314 10:06:33 InnoDB: highest supported file format is Barracuda.
InnoDB: The log sequence number in ibdata files does not match
InnoDB: the log sequence number in the ib_logfiles!
190314 10:06:33  InnoDB: Database was not shut down normally!
InnoDB: Starting crash recovery.
InnoDB: Reading tablespace information from the .ibd files...
InnoDB: Restoring possible half-written data pages from the doublewrite
InnoDB: buffer...
190314 10:06:33  InnoDB: Waiting for the background threads to start
190314 10:06:34 InnoDB: 1.1.8 started; log sequence number 2005358
190314 10:06:34 [Note] Server hostname (bind-address): '127.0.0.1'; port: 3306
190314 10:06:34 [Note]   - '127.0.0.1' resolves to '127.0.0.1';
190314 10:06:34 [Note] Server socket created on IP: '127.0.0.1'.
