^C:\GAME\INSTITUTE\PROJECTS\LAB_4\LAB_4\DOC.CPP|C:\GAME\INSTITUTE\PROJECTS\LAB_4\LAB_4\DOC_MANAGER.CPP|C:\GAME\INSTITUTE\PROJECTS\LAB_4\LAB_4\INTERNATIONAL_PASSPORT.CPP|C:\GAME\INSTITUTE\PROJECTS\LAB_4\LAB_4\PASPORT.CPP|C:\GAME\INSTITUTE\PROJECTS\LAB_4\LAB_4\SOURCE.CPP|C:\GAME\INSTITUTE\PROJECTS\LAB_4\LAB_4\STUDENT_CARD.CPP
C:\GAME\INSTITUTE\PROJECTS\LAB_4\LAB_4\DEBUG\VC141.PDB
C:\GAME\INSTITUTE\PROJECTS\LAB_4\LAB_4\DEBUG\VC141.IDB
C:\GAME\INSTITUTE\PROJECTS\LAB_4\LAB_4\DEBUG\DOC.OBJ
C:\GAME\INSTITUTE\PROJECTS\LAB_4\LAB_4\DEBUG\DOC_MANAGER.OBJ
C:\GAME\INSTITUTE\PROJECTS\LAB_4\LAB_4\DEBUG\INTERNATIONAL_PASSPORT.OBJ
C:\GAME\INSTITUTE\PROJECTS\LAB_4\LAB_4\DEBUG\PASPORT.OBJ
C:\GAME\INSTITUTE\PROJECTS\LAB_4\LAB_4\DEBUG\SOURCE.OBJ
C:\GAME\INSTITUTE\PROJECTS\LAB_4\LAB_4\DEBUG\STUDENT_CARD.OBJ
^C:\GAME\INSTITUTE\PROJECTS\LAB_4\LAB_4\DOC.CPP
C:\GAME\INSTITUTE\PROJECTS\LAB_4\LAB_4\DEBUG\VC141.PDB
^C:\GAME\INSTITUTE\PROJECTS\LAB_4\LAB_4\DOC_MANAGER.CPP
C:\GAME\INSTITUTE\PROJECTS\LAB_4\LAB_4\DEBUG\VC141.PDB
^C:\GAME\INSTITUTE\PROJECTS\LAB_4\LAB_4\INTERNATIONAL_PASSPORT.CPP
C:\GAME\INSTITUTE\PROJECTS\LAB_4\LAB_4\DEBUG\VC141.PDB
^C:\GAME\INSTITUTE\PROJECTS\LAB_4\LAB_4\PASPORT.CPP
C:\GAME\INSTITUTE\PROJECTS\LAB_4\LAB_4\DEBUG\VC141.PDB
^C:\GAME\INSTITUTE\PROJECTS\LAB_4\LAB_4\SOURCE.CPP
C:\GAME\INSTITUTE\PROJECTS\LAB_4\LAB_4\DEBUG\VC141.PDB
^C:\GAME\INSTITUTE\PROJECTS\LAB_4\LAB_4\STUDENT_CARD.CPP
C:\GAME\INSTITUTE\PROJECTS\LAB_4\LAB_4\DEBUG\VC141.PDB
