Warning[205] C:\FILES\LABS\6SEM\MPT\LAB2\LAB2.X\NEWPIC_8B_SIMPLE.ASM 5 : Found directive in column 1. (ORG)
Message[302] C:\FILES\LABS\6SEM\MPT\LAB2\LAB2.X\NEWPIC_8B_SIMPLE.ASM 15 : Register in operand not in bank 0.  Ensure that bank bits are correct.
Message[302] C:\FILES\LABS\6SEM\MPT\LAB2\LAB2.X\NEWPIC_8B_SIMPLE.ASM 18 : Register in operand not in bank 0.  Ensure that bank bits are correct.
Warning[207] C:\FILES\LABS\6SEM\MPT\LAB2\LAB2.X\NEWPIC_8B_SIMPLE.ASM 29 : Found label after column 1. (RUN)
Warning[207] C:\FILES\LABS\6SEM\MPT\LAB2\LAB2.X\NEWPIC_8B_SIMPLE.ASM 35 : Found label after column 1. (SHIFT)
Warning[207] C:\FILES\LABS\6SEM\MPT\LAB2\LAB2.X\NEWPIC_8B_SIMPLE.ASM 42 : Found label after column 1. (BUTTON)
Warning[207] C:\FILES\LABS\6SEM\MPT\LAB2\LAB2.X\NEWPIC_8B_SIMPLE.ASM 52 : Found label after column 1. (MENYEM)
Message[305] C:\FILES\LABS\6SEM\MPT\LAB2\LAB2.X\NEWPIC_8B_SIMPLE.ASM 53 : Using default destination of 1 (file).
Warning[207] C:\FILES\LABS\6SEM\MPT\LAB2\LAB2.X\NEWPIC_8B_SIMPLE.ASM 59 : Found label after column 1. (LEFT)
Message[305] C:\FILES\LABS\6SEM\MPT\LAB2\LAB2.X\NEWPIC_8B_SIMPLE.ASM 60 : Using default destination of 1 (file).
Warning[207] C:\FILES\LABS\6SEM\MPT\LAB2\LAB2.X\NEWPIC_8B_SIMPLE.ASM 63 : Found label after column 1. (RIGHT)
Message[305] C:\FILES\LABS\6SEM\MPT\LAB2\LAB2.X\NEWPIC_8B_SIMPLE.ASM 64 : Using default destination of 1 (file).
Warning[207] C:\FILES\LABS\6SEM\MPT\LAB2\LAB2.X\NEWPIC_8B_SIMPLE.ASM 68 : Found label after column 1. (DELAY1)
Warning[207] C:\FILES\LABS\6SEM\MPT\LAB2\LAB2.X\NEWPIC_8B_SIMPLE.ASM 75 : Found label after column 1. (LOOP)
Warning[207] C:\FILES\LABS\6SEM\MPT\LAB2\LAB2.X\NEWPIC_8B_SIMPLE.ASM 83 : Found label after column 1. (LOOP1)
Warning[207] C:\FILES\LABS\6SEM\MPT\LAB2\LAB2.X\NEWPIC_8B_SIMPLE.ASM 91 : Found label after column 1. (LOOP2)
Warning[205] C:\FILES\LABS\6SEM\MPT\LAB2\LAB2.X\NEWPIC_8B_SIMPLE.ASM 95 : Found directive in column 1. (END)
